{
  "name": "accreditation",
  "commands": [
    {
      "name": "get-application",
      "body": "?applicationId=1234"
    },
    {
      "name": "create-application",
      "body": {
        "foo": "bar"
      }
    }
  ]
}