{
  "dev": {
    "awscloudformation": {
      "AuthRoleName": "amplify-onestepreliefauth-dev-193002-authRole",
      "UnauthRoleArn": "arn:aws:iam::526075855093:role/amplify-onestepreliefauth-dev-193002-unauthRole",
      "AuthRoleArn": "arn:aws:iam::526075855093:role/amplify-onestepreliefauth-dev-193002-authRole",
      "Region": "us-west-2",
      "DeploymentBucketName": "amplify-onestepreliefauth-dev-193002-deployment",
      "UnauthRoleName": "amplify-onestepreliefauth-dev-193002-unauthRole",
      "StackName": "amplify-onestepreliefauth-dev-193002",
      "StackId": "arn:aws:cloudformation:us-west-2:526075855093:stack/amplify-onestepreliefauth-dev-193002/ebea4940-732b-11eb-9fbf-0af410a5cb31",
      "AmplifyAppId": "dgh53ac8rtozn"
    },
    "categories": {
      "auth": {
        "onestepreliefauth": {}
      }
    }
  }
}